#title "C"

<div style="float:right; margin-left: 8px;"><iframe src="http://rcm-de.amazon.de/e/cm?lt1=_blank&bc1=000000&IS2=1&bg1=FFFFFF&fc1=000000&lc1=0000FF&t=derschockwell-21&o=3&p=8&l=as4&m=amazon&f=ifr&ref=ss_til&asins=386899386X" style="width:120px;height:240px;" scrolling="no" marginwidth="0" marginheight="0" frameborder="0"></iframe></div>

- [Espresso-C](Espresso-C)

[[fixme]]
